date,volume,lowest,highest,average
0,915,1840008.21,2067298.66,2067293.98
1,1108,2048999.69,2067291.84,2067290.74
2,741,2058999.99,2067273.0,2067271.0
3,630,1900000.6,2067270.0,2048923.98
4,736,1900007.01,2048921.96,2048916.5
5,809,2047916.48,2048913.98,2048912.92
6,889,1900016.1,2047911.99,2047911.97
7,1062,1900017.0,2047897.94,2047892.69
8,961,1900011.3,2047891.95,2039999.96
9,740,2029999.99,2039997.0,2039959.97
10,720,2039720.99,2039954.99,2039898.15
11,815,1901011.4,2039717.97,2038796.99
12,1091,1901011.1,2038795.79,1901011.2
13,905,2038793.75,2038794.95,2038793.79
14,933,1901003.11,2038789.98,2038789.84
15,1023,1901003.11,2038787.89,2038786.83
16,765,1901003.18,2037998.99,2037992.99
17,737,1825005.12,2035998.95,2035977.87
18,858,1999999.0,2035975.79,2035000.0
19,717,1826000.04,2030898.0,2030896.96
20,632,2030818.0,2030818.95,2030818.94
21,1163,1827003.0,2030817.89,2030817.8
22,954,1827005.1,2009998.89,1949999.99
23,701,1949998.68,1949998.98,1949998.94
24,698,1827005.16,2009995.0,2008996.9
25,501,2000006.05,2008797.86,2008796.89
26,619,1900006.05,1999999.0,1999989.95
27,827,1827006.12,1999989.0,1999987.91
28,954,1705398.61,1999987.8,1999984.0
29,1018,1705401.24,1989999.78,1897895.94
30,795,1706400.0,1897891.67,1897688.7
31,563,1886689.0,1897688.56,1888493.99
32,717,1886666.51,1886681.0,1886673.0
33,635,1884662.99,1886666.0,1884665.99
34,717,1800000.0,1883588.9,1883588.7
35,882,1706435.13,1883583.99,1883583.76
36,1104,1799997.99,1799999.9,1799998.9
37,712,1706439.16,1799997.99,1799997.9
38,766,1706444.36,1882988.83,1882988.79
39,661,1706446.45,1882986.99,1879999.43
40,781,1878999.94,1879998.0,1879975.99
41,688,1706464.61,1879975.97,1879974.97
42,917,1710001.2,1879974.45,1879973.57
43,1205,1879898.93,1879900.87,1879898.98
44,703,1845100.0,1879900.85,1879900.77
45,883,1747200.0,1879899.99,1879899.98
46,1097,1725002.31,1879949.93,1879948.0
47,972,1725004.01,1878999.97,1878999.92
48,828,1725004.01,1878999.81,1878999.0
49,1100,1725005.0,1878999.77,1878999.67
50,1177,1725006.02,1878999.02,1878994.99
51,958,1878995.71,1878998.92,1878998.91
52,1016,1878999.34,1879974.82,1878999.7
53,925,1879974.89,1879974.95,1879974.94
54,863,1849989.98,1999984.99,1999984.0
55,878,1726016.07,1999999.96,1999999.0
56,2237,2030816.02,2039717.98,2038795.74
57,1098,2047910.0,2047910.98,2047910.95
58,847,1800010.41,2047910.97,2047910.0
59,910,1800100.22,2047910.92,2047910.85
60,856,1990999.0,2047910.98,2047550.0
61,814,2010000.9,2047910.43,2044999.94
62,889,1800112.47,2033887.84,2010000.0
63,1202,1800223.94,2009998.98,2009993.5
64,1129,1800292.3,2009996.83,2009994.92
65,878,1999999.98,2009995.25,2009990.55
66,1156,1800308.2,2033885.84,2009997.14
67,1052,1800312.1,2033884.97,2000000.0
68,1108,1999999.99,2033884.48,2033882.9
69,925,2030998.9,2033500.0,2030999.98
70,1321,2000000.0,2033881.97,2030999.99
71,1282,2032998.99,2033824.97,2033823.85
72,965,2023998.85,2033823.6,2029999.97
73,988,2000000.0,2023999.84,2022000.48
74,1083,2019999.84,2019999.95,2019999.86
75,1038,2019898.99,2019999.86,2019999.83
76,1358,1885025.1,2030998.99,1885027.03
77,1758,2015996.0,2030997.82,2030997.75
78,1298,1886013.34,2029998.0,2029997.82
79,1762,1886013.5,2029997.82,2027999.64
80,1114,1999988.89,1999988.95,1999988.93
81,1222,1886013.3,1999988.99,1999988.96
82,885,2021999.49,2030998.0,2030997.98
83,1020,2020997.99,2030997.99,2020998.99
84,838,1886810.18,2020997.0,2020995.92
85,783,2019999.9,2020995.0,2020994.99
86,948,1886014.03,2020994.59,2020989.92
87,1160,1886015.0,2020989.0,2020986.91
88,935,2020592.81,2020597.99,2020595.0
89,1374,2018987.98,2020595.0,2020589.5
90,1008,2020500.0,2020588.88,2020539.87
91,1214,1890084.0,2020538.9,2020537.9
92,1081,1891022.01,2020533.99,2020070.01
93,1559,1891100.03,2020068.99,2020068.95
94,1400,2020000.0,2020068.97,2020068.95
95,1526,2020529.99,2749999.99,2020530.02
96,1080,2449999.99,2744444.19,2739998.23
97,1258,2448997.98,2549998.92,2449998.9
98,1543,2448991.76,2598999.73,2448991.93
99,1301,2500023.03,2699999.97,2699981.93
100,1213,2100036.3,2666988.21,2664898.0
101,1593,2102045.3,2600960.39,2102045.41
102,1735,2102146.78,2299994.0,2249996.55
103,1570,2102147.1,2199999.0,2102250.0
104,1272,2103000.0,2199998.96,2198999.98
105,1188,2110000.0,2197998.88,2193999.83
106,1873,2102147.14,2192999.91,2180000.0
107,914,2159994.0,2187999.96,2164998.97
108,1247,1904000.3,2159993.99,2150998.93
109,1032,2049998.95,2160985.0,2160984.99
110,1056,2160000.0,2160994.98,2160499.83
111,1045,2160499.02,2160995.96,2160995.89
112,1225,2160994.94,2160995.94,2160995.9
113,1167,2160996.0,2219999.0,2219000.0
114,908,2199998.8,2219999.0,2199999.0
115,1229,2000000.72,2199997.99,2159997.82
116,1076,2000100.21,2149988.0,2140099.78
117,994,1992011.85,2139988.98,2098999.0
118,1001,1992016.08,2098998.0,2098997.97
119,1049,2074998.87,2098993.0,2074998.9
120,1136,2073995.0,2074998.78,2073998.98
121,986,2060998.0,2073993.99,2060999.98
122,1008,2039994.98,2073993.02,2064997.98
123,1120,2035000.0,2039992.47,2039974.89
124,1079,1885003.15,2039969.94,2039942.0
125,960,2038435.98,2039440.0,2039435.99
126,1320,2039435.0,2039435.98,2039435.85
127,1267,2039428.95,2039429.98,2039429.88
128,787,2039294.41,2039427.96,2039298.0
129,1327,1886002.31,2029500.7,2028446.79
130,946,2018997.82,2019999.79,2018999.98
131,1025,2014990.0,2014998.97,2014996.98
132,1126,1999999.99,2014994.77,2014992.91
133,1158,2012944.0,2012998.68,2012945.0
134,1297,2012935.0,2012943.68,2012939.98
135,1062,2000000.0,2009997.85,2009991.97
136,868,2007999.95,2009988.98,2009983.0
137,1042,2009979.96,2009982.88,2009982.76
138,797,2009899.98,2009979.9,2009979.63
139,1240,2000000.0,2009898.0,2009896.85
140,1286,1999998.0,2009894.97,1999999.85
141,1319,1999996.92,1999996.99,1999996.95
142,894,1989999.99,1999996.56,1999995.91
143,1171,1999994.98,1999995.82,1999995.0
144,1037,1999199.0,2009899.99,1999995.8
145,854,1799008.05,2013998.95,2013996.0
146,1028,2013996.46,2039299.74,2039000.0
147,1541,2039298.96,2039299.74,2039299.73
148,1392,2039299.74,2039299.83,2039299.8
149,1268,1856003.04,2039446.95,2039446.94
150,1083,2039445.0,2039448.0,2039447.0
151,824,2099998.99,2099999.0,2099999.0
152,763,2258546.93,2299998.0,2258547.99
153,894,2130000.0,2149997.99,2139996.42
154,1096,2139989.0,2139997.0,2139996.9
155,1169,2149993.77,2149993.98,2149993.96
156,731,1951000.05,2149992.94,2149991.67
157,756,2149900.0,2149991.4,2149990.0
158,908,1950000.06,2149990.9,2149888.95
159,1124,1856037.16,2149887.98,2149881.98
160,1050,2040447.99,2149881.86,2149881.84
161,1081,2139997.77,2139997.89,2139997.8
162,1205,2100000.0,2139997.89,2139997.03
163,805,2149997.98,2299998.0,2299997.45
164,736,1860037.19,2299998.87,2299998.86
165,633,2449886.61,2449889.9,2449887.97
166,1089,2249999.98,2449884.68,2449584.58
167,926,1979578.66,2449578.89,2449578.44
168,963,2446150.4,2449577.68,2447999.98
169,1073,2445150.37,2445997.94,2445997.84
170,785,2299998.0,2445249.95,2445244.63
171,844,1971586.86,2445241.62,2445239.96
172,749,2395589.0,2445239.72,2395589.09
173,952,1971593.06,2395498.81,2395497.39
174,831,1973006.42,2394490.0,2394409.36
175,1352,2000001.76,2394401.98,2394390.99
176,982,2392999.96,2393999.99,2392999.98
177,1142,2394388.98,2394390.48,2394389.98
178,1063,2001060.73,2394386.79,2394299.88
179,905,2001070.34,2394299.2,2394298.73
180,651,2392997.99,2393999.64,2393997.89
181,875,2011000.1,2392293.0,2392285.94
182,920,2391998.71,2392281.0,2391999.94
183,961,2035002.2,2391749.11,2391747.95
184,956,2035003.26,2350000.0,2299990.0
185,623,2299929.94,2299988.95,2299949.97
186,803,2199699.99,2199999.99,2199723.22
187,677,2199699.99,2199723.15,2199720.15
188,696,2190000.0,2191746.13,2191743.97
189,1276,2046950.43,2191736.11,2191728.97
190,841,2191729.98,2191734.99,2191730.0
191,994,2046951.53,2144999.98,2141951.0
192,914,2046951.5,2144881.94,2114881.86
193,880,2046951.5,2114881.0,2100000.0
194,821,2110000.0,2114879.99,2114879.92
195,1019,2046951.8,2114799.0,2114797.97
196,1068,2114794.76,2114797.84,2114797.7
197,1069,2114793.0,2114794.86,2114794.59
198,789,2114777.0,2114794.58,2114794.49
199,878,2113998.8,2114794.4,2113999.99
200,2946,2213998.89,2213998.89,2213998.89
201,1022,2109999.84,2191724.0,2110000.0
202,842,2089999.98,2109999.71,2099999.0
203,1065,2098998.55,2099998.0,2098999.95
204,1099,2108998.9,2109999.99,2109999.53
205,809,1860665.43,2108899.95,2108888.97
206,822,2108888.23,2108888.94,2108888.9
207,901,2107999.95,2108888.88,2107999.99
208,883,1868892.46,2107999.96,2105711.58
209,905,2105711.98,2107000.0,2105712.8
210,964,2100000.0,2109999.1,2107999.0
211,855,2110000.0,2191697.5,2191690.0
212,712,2189988.99,2189989.79,2189989.78
213,706,2179999.0,2189989.77,2189984.6
214,757,2179998.97,2189983.8,2189979.9
215,784,2141899.95,2189897.95,2189887.96
216,773,2094999.0,2189882.8,2189879.9
217,870,2174999.9,2189879.0,2179998.1
218,1106,2179998.11,2189984.54,2189879.98
219,852,2189984.55,2299999.99,2189984.67
220,726,2391744.99,2393997.28,2391745.0
221,657,2393997.89,2990099.99,2399902.0
222,752,2970099.94,2980100.0,2980099.83
223,879,2088006.4,2949999.88,2749999.59
224,1010,2496987.87,2696999.92,2696956.42
225,921,2400488.73,2500499.98,2480100.0
226,700,2102006.09,2400000.0,2374998.76
227,749,2374499.79,2374549.0,2374499.96
228,773,2102083.15,2374499.65,2374499.59
229,950,2302085.08,2374499.18,2374497.95
230,848,2374497.87,2374999.94,2374499.59
231,790,2374999.96,2479999.84,2472291.15
232,1570,2102291.87,2352287.98,2102292.03
233,817,2102291.93,2302095.18,2302095.1
234,1026,2102083.33,2352250.0,2299095.19
235,882,2352189.0,2352248.9,2352195.99
236,865,2339406.14,2352189.92,2351895.94
237,868,2150000.07,2418999.18,2418999.14
238,912,2300887.97,2418998.14,2300887.98
239,1007,2300887.97,2418998.1,2418990.0
240,1047,2418896.97,2418998.0,2418995.84
241,670,2150004.04,2418998.02,2418799.98
242,728,2150006.35,2418745.17,2418744.0
243,638,2150009.0,2418743.62,2418743.26
244,869,2418727.07,2418741.95,2418737.95
245,1013,2418725.49,2418725.94,2418725.5
246,955,2418724.13,2418724.25,2418724.19
247,712,2418349.0,2418723.95,2418720.96
248,596,2418146.64,2418149.95,2418148.0
249,587,2150112.0,2417998.99,2417998.41
250,566,2417249.99,2418146.29,2417998.99
251,934,2150112.03,2418132.0,2418127.99
252,804,2418126.99,2418128.93,2418127.99
253,892,2418079.92,2418127.99,2418103.47
254,771,2150010.0,2414998.84,2414993.99
255,636,2414871.0,2414872.95,2414872.94
256,971,2414870.9,2414996.88,2414876.89
257,705,2414102.0,2418103.0,2418100.99
258,713,2417999.99,2418100.91,2418100.0
259,880,2008500.0,2418100.64,2417098.98
260,550,2008533.66,2417098.98,2416999.46
261,880,2415998.9,2415998.97,2415998.9
262,658,2413997.99,2415998.86,2414999.39
263,735,2413894.99,2413997.95,2413997.88
264,1023,2413497.99,2413498.97,2413498.96
265,975,2413000.14,2413498.89,2413496.94
266,1112,2413498.95,2413997.88,2413498.97
267,765,2416999.97,2418100.9,2416999.98
268,592,2153305.35,2694992.99,2694991.0
269,782,2689746.99,2689746.99,2689746.99
270,819,2689699.99,2689744.0,2689742.97
271,658,2694993.0,2978999.97,2978997.98
272,812,2480390.35,2978997.83,2974122.98
273,779,2974120.0,2974120.9,2974120.78
274,857,2158535.57,2972994.86,2972994.26
275,734,2258689.91,2971933.62,2450000.0
276,1063,2258000.0,2398958.95,2258689.98
277,605,2258537.85,2388857.4,2388856.99
278,661,2388535.97,2388857.01,2388536.0
279,801,2388000.0,2388535.89,2388535.85
280,897,2388249.9,2388249.97,2388249.93
281,787,2388249.94,2388249.96,2388249.94
282,633,2388245.0,2388249.91,2388249.85
283,682,2258538.7,2388199.97,2380199.9
284,702,2258538.71,2388198.45,2388197.65
285,1679,2158537.23,2387082.9,2258538.53
286,921,2276964.0,2386968.96,2279968.86
287,916,2276150.0,2276244.18,2276244.11
288,691,1996991.73,2276243.88,2276243.5
289,739,1996991.9,2275999.86,2275249.97
290,1058,2266999.93,2274999.99,2267000.0
291,697,2274999.99,2275999.86,2275998.42
292,679,2200000.0,2275997.99,2274999.97
293,2403,2275998.44,2385999.0,2275998.5
294,1392,2349999.0,2387999.76,2387999.57
295,496,2388247.99,2388248.91,2388248.9
296,644,2388247.0,2388249.99,2388249.0
297,862,2500000.0,2749998.92,2749998.9
298,809,2499898.44,2499898.52,2499898.51
299,699,2000153.12,2498998.37,2387989.0
300,873,2386999.66,2387988.19,2386999.7
301,832,2490000.0,2749996.86,2749996.84
302,631,2749989.9,2749996.01,2749995.9
303,604,2745000.0,2749995.83,2749994.2
304,638,2600195.15,2699997.95,2699997.9
305,622,2699789.0,2699894.94,2699890.0
306,829,2399999.99,2699247.99,2699247.68
307,845,2001347.27,2698999.6,2698999.36
308,777,2698996.98,2698998.79,2698998.4
309,485,2698240.45,2698998.33,2698998.31
310,501,2599999.95,2698237.76,2698237.68
311,615,2320002.3,2599748.74,2599744.0
312,738,2320007.62,2599744.99,2599699.98
313,620,2598999.91,2599697.05,2599696.98
314,815,2320017.06,2549999.83,2549749.99
315,704,2549149.99,2549538.97,2549536.5
316,609,2549143.37,2549149.96,2549145.82
317,828,2324002.77,2324002.77,2324002.77
318,685,2489019.92,2549018.43,2499999.0
319,502,2500000.0,2549018.47,2549015.0
320,608,2548997.97,2548999.9,2548998.0
321,756,2547998.79,2548339.98,2547998.8
322,900,2547998.8,2549018.49,2549018.45
323,627,2548017.2,2549018.5,2548999.0
324,657,2500000.0,2549528.35,2549145.84
325,643,2598997.0,2598997.9,2598997.39
326,713,2598997.39,2598997.41,2598997.4
327,739,2324027.97,2598997.9,2598349.7
328,1196,2325001.21,2598349.7,2598339.7
329,820,2362500.9,2598239.9,2550000.0
330,778,2498000.0,2549999.99,2499999.99
331,912,2549998.99,2550000.0,2549999.0
332,702,2598239.86,2598239.87,2598239.87
333,646,2500000.0,2597999.99,2597999.95
334,674,2326666.2,2597999.95,2597998.89
335,719,2596996.0,2596996.0,2596996.0
336,848,2596237.95,2596996.0,2596991.0
337,735,2336669.3,2596236.91,2596235.97
338,735,2336670.36,2596233.97,2596227.97
339,551,2595999.99,2596227.97,2596223.0
340,685,2596226.71,2596226.94,2596226.89
341,586,2549998.93,2596226.83,2596199.93
342,696,2499999.95,2596199.75,2549998.99
343,694,2336000.02,2595998.95,2595996.95
344,751,2324017.0,2595220.96,2585998.82
345,630,2323004.0,2548939.82,2544977.77
346,552,2544700.0,2544790.03,2544783.82
347,736,2325002.0,2543997.99,2543749.99
348,639,2325008.24,2543347.99,2543344.28
349,857,2325278.0,2543274.64,2543269.85
350,768,2325281.84,2543258.85,2536238.91
351,789,2325281.86,2536235.0,2399999.99
352,584,2499244.64,2499996.12,2499994.99
353,683,2490000.0,2499211.99,2499208.41
354,632,2449999.95,2497999.94,2497219.95
355,656,2222349.7,2429998.95,2419999.91
356,902,2337999.96,2429998.89,2419748.0
357,870,2449999.87,2499247.0,2449999.96
358,913,2222378.4,2543274.33,2541999.99
359,718,2222490.01,2542987.68,2542986.92
360,636,2542975.0,2542985.94,2542976.0
361,843,2438491.46,2542799.95,2542698.0
362,646,2386491.21,2542699.98,2542597.81
363,1091,2502492.46,2540999.91,2540998.98
364,1257,2272495.94,2540748.94,2499747.31
365,729,2400000.0,2499747.32,2499739.7
366,583,2282492.61,2499739.89,2489998.97
367,703,2312722.19,2429898.99,2429247.88
368,696,2272503.28,2429199.98,2429198.97
369,828,2425700.01,2428899.83,2428899.62
370,781,2428899.0,2428899.84,2428899.65
371,1030,2272522.06,2428899.0,2428898.91
372,595,2428899.84,2428899.87,2428899.86
373,680,2428899.81,2428899.99,2428899.87
374,596,2428899.99,2428900.0,2428900.0
375,613,2282494.44,2499999.96,2499996.73
376,1709,2499996.71,2543274.64,2540998.99
377,1227,2596199.87,2698999.82,2698998.0
378,859,2698999.99,2969995.56,2748243.47
379,896,2502507.89,3999999.81,3999775.99
380,1177,2800002.02,3899775.42,2999999.93
381,516,2700077.81,2999733.0,2899998.97
382,1002,2600001.16,2699734.49,2699733.99
383,771,2889747.98,2899747.99,2899747.96
384,1439,2985200.35,3499998.97,3020000.04
385,1167,3242200.36,3699999.98,3499999.0
386,1313,3478996.84,3750900.35,3588999.98
387,800,3999978.92,4636680.26,3999999.95
388,702,3998948.73,4135113.05,3999978.94
389,979,3945114.07,4626172.0,4600000.0
390,1990,3945114.2,4599987.85,3945114.4
391,996,4569968.79,4582420.0,4579419.28
392,1761,3745120.2,3989789.72,3750004.12
393,1221,3750005.3,3986899.97,3750005.3
394,1733,3745120.1,3745120.1,3745120.1
395,909,3745120.1,3749984.0,3745120.1
396,1092,3645120.1,3689999.99,3688888.0
397,910,3489999.9,3645116.12,3489999.99
398,1002,3489988.15,3489999.5,3489988.8
399,1231,2989998.99,3099999.88,2999999.99
400,1122,2820000.0,3099999.63,3099999.0
401,822,2820045.0,3099999.49,3099999.22
402,741,3099998.98,3480044.97,3099999.65
403,1421,2820049.0,3099998.9,2820051.47
404,840,2820052.06,3095053.03,2950000.0
405,821,2999999.96,3094999.94,3089999.93
406,908,2820046.67,2999998.92,2999998.8
407,670,2600002.24,2998050.67,2988047.49
408,651,2600005.35,2987989.99,2987045.67
409,673,2799999.96,2986990.0,2986850.78
410,740,2600011.45,2986042.93,2900989.98
411,1040,2700014.0,2800012.0,2800011.94
412,689,2986039.94,2986040.98,2986040.92
413,955,2600022.71,2986039.82,2979997.92
414,785,2600024.36,2979949.99,2979948.87
415,564,2899985.57,2899986.62,2899985.69
416,1049,2600090.6,2820998.5,2600110.0
417,795,2600090.4,2819965.0,2819960.73
